{
    "access_token":"67561edf2ef10382826457f0d56e851644058b6a10769bbc15915b1017feb716",
    "token_type":"bearer",
    "expires_in":5184000,
    "refresh_token":"679c3c38551dfc38f0a7974e6236b40062b9c5920a5f5ef8b23399dcc9fda0c5",
    "created_at":1512641293
}
